<svg width="39" height="39" viewBox="0 0 39 39" fill="none" xmlns="http://www.w3.org/2000/svg">
<path d="M11.0497 22.0995H12.3495V23.3993H11.0497V22.0995Z" fill="#98CF7C"/>
<path d="M13.6505 22.0995H14.9502V23.3993H13.6505V22.0995Z" fill="#98CF7C"/>
<path d="M16.2499 22.0995H17.5497V23.3993H16.2499V22.0995Z" fill="#98CF7C"/>
<path d="M11.0497 24.7002H12.3495V26H11.0497V24.7002Z" fill="#98CF7C"/>
<path d="M13.6505 24.7002H14.9502V26H13.6505V24.7002Z" fill="#98CF7C"/>
<path d="M16.2499 24.7002H17.5497V26H16.2499V24.7002Z" fill="#98CF7C"/>
<path d="M18.8497 24.7002H20.1495V26H18.8497V24.7002Z" fill="#98CF7C"/>
<path d="M21.4502 24.7002H22.75V26H21.4502V24.7002Z" fill="#98CF7C"/>
<path d="M11.0497 27.2998H12.3495V28.5996H11.0497V27.2998Z" fill="#98CF7C"/>
<path d="M13.6505 27.2998H14.9502V28.5996H13.6505V27.2998Z" fill="#98CF7C"/>
<path d="M16.2499 27.2998H17.5497V28.5996H16.2499V27.2998Z" fill="#98CF7C"/>
<path d="M18.8497 27.2998H20.1495V28.5996H18.8497V27.2998Z" fill="#98CF7C"/>
<path d="M21.4502 27.2998H22.75V28.5996H21.4502V27.2998Z" fill="#98CF7C"/>
<path d="M11.0497 29.8993H12.3495V31.1991H11.0497V29.8993Z" fill="#98CF7C"/>
<path d="M13.6505 29.8993H14.9502V31.1991H13.6505V29.8993Z" fill="#98CF7C"/>
<path d="M16.2499 29.8993H17.5497V31.1991H16.2499V29.8993Z" fill="#98CF7C"/>
<path d="M18.8497 29.8993H20.1495V31.1991H18.8497V29.8993Z" fill="#98CF7C"/>
<path d="M21.4502 29.8993H22.75V31.1991H21.4502V29.8993Z" fill="#98CF7C"/>
<path d="M11.0497 32.5H12.3495V33.7998H11.0497V32.5Z" fill="#98CF7C"/>
<path d="M13.6505 32.5H14.9502V33.7998H13.6505V32.5Z" fill="#98CF7C"/>
<path d="M16.2499 32.5H17.5497V33.7998H16.2499V32.5Z" fill="#98CF7C"/>
<path d="M18.8497 32.5H20.1495V33.7998H18.8497V32.5Z" fill="#98CF7C"/>
<path d="M21.4502 32.5H22.75V33.7998H21.4502V32.5Z" fill="#98CF7C"/>
<path d="M11.0497 35.0995H12.3495V36.3993H11.0497V35.0995Z" fill="#98CF7C"/>
<path d="M13.6505 35.0995H14.9502V36.3993H13.6505V35.0995Z" fill="#98CF7C"/>
<path d="M16.2499 35.0995H17.5497V36.3993H16.2499V35.0995Z" fill="#98CF7C"/>
<path d="M18.8497 35.0995H20.1495V36.3993H18.8497V35.0995Z" fill="#98CF7C"/>
<path d="M21.4502 35.0995H22.75V36.3993H21.4502V35.0995Z" fill="#98CF7C"/>
<path d="M38.3496 1.95022H33.7998V0.647196C33.7998 0.475549 33.7316 0.310932 33.6102 0.189559C33.4889 0.0681865 33.3242 0 33.1526 0H26.6494C26.4777 0 26.3131 0.0681865 26.1917 0.189559C26.0703 0.310932 26.0022 0.475549 26.0022 0.647196V1.95022H0.647196C0.475549 1.95022 0.310932 2.0184 0.189559 2.13978C0.0681867 2.26115 2.03197e-07 2.42576 2.03197e-07 2.59741V5.19698C2.03197e-07 5.36863 0.0681867 5.53324 0.189559 5.65462C0.310932 5.77599 0.475549 5.84418 0.647196 5.84418H2.59957V18.2002C2.59957 18.3719 2.66776 18.5365 2.78913 18.6579C2.9105 18.7792 3.07512 18.8474 3.24676 18.8474C3.37477 18.8474 3.4999 18.8854 3.60633 18.9565C3.71276 19.0276 3.79571 19.1287 3.8447 19.2469C3.89368 19.3652 3.9065 19.4953 3.88152 19.6209C3.85655 19.7464 3.79491 19.8617 3.7044 19.9522C3.61389 20.0428 3.49857 20.1044 3.37303 20.1294C3.24748 20.1543 3.11735 20.1415 2.99909 20.0925C2.88083 20.0436 2.77976 19.9606 2.70864 19.8542C2.63753 19.7477 2.59957 19.6226 2.59957 19.4946H1.29978C1.30155 19.9704 1.47858 20.429 1.79705 20.7825L0.130518 23.01L0.139147 23.0164C0.0520569 23.1254 0.00316822 23.2599 2.03197e-07 23.3994V25.9957C-6.74674e-05 26.0811 0.0167678 26.1657 0.0495355 26.2445C0.0823033 26.3234 0.130356 26.395 0.190923 26.4552L1.49071 27.755C1.55092 27.8155 1.62251 27.8636 1.70138 27.8964C1.78024 27.9291 1.86481 27.946 1.95022 27.9459H4.54978C4.63519 27.946 4.71976 27.9291 4.79862 27.8964C4.87749 27.8636 4.94909 27.8155 5.00929 27.755L6.30908 26.4595C6.36964 26.3993 6.4177 26.3277 6.45046 26.2488C6.48323 26.17 6.50007 26.0854 6.5 26V23.4004C6.49714 23.2611 6.44863 23.1266 6.36193 23.0175L6.37056 23.011L4.70295 20.7879C4.91617 20.5501 5.06743 20.2634 5.14332 19.9531C5.21921 19.6429 5.21738 19.3187 5.13801 19.0093C5.05864 18.6999 4.90417 18.4149 4.68829 18.1795C4.47242 17.9441 4.2018 17.7656 3.90043 17.6598V5.84957H25.9957V6.49676C25.9957 6.66841 26.0639 6.83303 26.1852 6.9544C26.3066 7.07577 26.4712 7.14396 26.6429 7.14396H27.9427V37.7002H25.3485V11.7045H24.0541V14.3041H20.1494V13H18.8496V14.2998H14.9502V13.6526H13.6504V14.2998H9.75V12.3496H18.2002V11.0498H9.75V8.45022H8.45022V37.7002H7.41902L4.35994 34.6401C4.29978 34.5794 4.22819 34.5313 4.14933 34.4984C4.07046 34.4655 3.98587 34.4486 3.90043 34.4486C3.81499 34.4486 3.7304 34.4655 3.65154 34.4984C3.57267 34.5313 3.50109 34.5794 3.44092 34.6401L0.380767 37.7002H2.03197e-07V39H39V37.7002H38.493C38.7177 37.4546 38.8752 37.155 38.9501 36.8307C39.0251 36.5063 39.015 36.1681 38.9208 35.8487C38.8266 35.5294 38.6516 35.2398 38.4126 35.008C38.1736 34.7763 37.8788 34.6101 37.5568 34.5257C37.6771 34.2296 37.7228 33.9085 37.6898 33.5906C37.6569 33.2727 37.5463 32.9678 37.3679 32.7026C37.1894 32.4375 36.9485 32.2203 36.6664 32.0701C36.3843 31.9199 36.0696 31.8414 35.75 31.8414C35.4304 31.8414 35.1157 31.9199 34.8336 32.0701C34.5515 32.2203 34.3106 32.4375 34.1321 32.7026C33.9537 32.9678 33.8431 33.2727 33.8102 33.5906C33.7772 33.9085 33.8229 34.2296 33.9432 34.5257C33.6212 34.6101 33.3264 34.7763 33.0874 35.008C32.8485 35.2398 32.6734 35.5294 32.5792 35.8487C32.485 36.1681 32.4749 36.5063 32.5499 36.8307C32.6248 37.155 32.7823 37.4546 33.007 37.7002H31.8496V7.15043H33.1494C33.321 7.15043 33.4856 7.08225 33.607 6.96087C33.7284 6.8395 33.7966 6.67488 33.7966 6.50324V5.85604H38.3463C38.518 5.85604 38.6826 5.78785 38.804 5.66648C38.9253 5.54511 38.9935 5.38049 38.9935 5.20885V2.59957C38.9941 2.42811 38.9266 2.26343 38.8059 2.14168C38.6851 2.01993 38.521 1.95107 38.3496 1.95022ZM3.57468 21.4502L4.54547 22.75H1.95022L2.92101 21.4502H3.57468ZM5.19914 25.7314L4.28012 26.6504H2.2188L1.29978 25.7314V24.0541H5.20022L5.19914 25.7314ZM35.5548 3.25L33.7998 4.4225V3.25H35.5548ZM27.2998 1.29978H29.8994V3.89935H27.2998V1.29978ZM9.75 3.38052L11.505 4.55086H7.99502L9.75 3.38052ZM5.84957 4.4225L4.09891 3.25H7.60455L5.84957 4.4225ZM11.8901 3.25216H15.4L13.6504 4.4225L11.8901 3.25216ZM17.5455 3.38268L19.308 4.54978H15.7948L17.5455 3.38268ZM19.6898 3.25216H23.1998L21.4502 4.4225L19.6898 3.25216ZM1.29547 3.25216H1.75066L3.70519 4.54978H1.29978L1.29547 3.25216ZM23.5946 4.54978L25.5448 3.25H25.9957V4.54978H23.5946ZM30.5498 35.5548L29.3794 33.7998L30.5498 32.0448V35.5548ZM30.5498 19.9552L29.3794 18.2002L30.5498 16.4452V19.9552ZM29.25 20.3457L30.4182 22.0996L29.2478 23.8545L29.25 20.3457ZM29.25 16.0558V12.5448L30.4182 14.2998L29.25 16.0558ZM29.25 28.1455L30.4182 29.8994L29.2478 31.6543L29.25 28.1455ZM30.5498 27.7517L29.3794 25.9957L30.5498 24.2407V27.7517ZM29.3794 10.4004L30.5498 8.64545V12.1554L29.3794 10.4004ZM29.2489 8.25606V7.15043H29.9867L29.2489 8.25606ZM24.0541 15.5996V22.0996H20.1494V15.5996H24.0541ZM18.8539 15.5996V21.1892L17.3589 19.7114C17.2378 19.5913 17.0742 19.5239 16.9037 19.5237H14.9502V15.5996H18.8539ZM13.6537 15.5996V16.6782H9.75V15.5996H13.6537ZM3.90043 36.0186L5.58098 37.6991H2.2188L3.90043 36.0186ZM9.75 37.6991V17.9834H13.6504V20.1774C13.6504 20.2624 13.6672 20.3465 13.6997 20.4251C13.7322 20.5036 13.7799 20.5749 13.84 20.635C13.9001 20.6951 13.9714 20.7428 14.05 20.7753C14.1285 20.8079 14.2126 20.8246 14.2976 20.8246H16.6329L19.0448 23.2095C19.1659 23.3296 19.3295 23.397 19.5 23.3972H24.0541V37.7002L9.75 37.6991ZM29.25 35.9442L30.4182 37.7002H29.25V35.9442ZM37.0498 37.0487C36.9218 37.0487 36.7966 37.0107 36.6902 36.9396C36.5838 36.8685 36.5008 36.7674 36.4519 36.6492C36.4029 36.5309 36.3901 36.4008 36.415 36.2753C36.44 36.1497 36.5016 36.0344 36.5922 35.9439C36.6827 35.8534 36.798 35.7917 36.9235 35.7668C37.0491 35.7418 37.1792 35.7546 37.2975 35.8036C37.4157 35.8526 37.5168 35.9355 37.5879 36.042C37.659 36.1484 37.697 36.2735 37.697 36.4015C37.6971 36.4866 37.6805 36.5709 37.648 36.6495C37.6156 36.7282 37.5679 36.7996 37.5078 36.8598C37.4477 36.9201 37.3763 36.9678 37.2977 37.0004C37.2191 37.033 37.1349 37.0487 37.0498 37.0487ZM35.75 33.1483C35.878 33.1483 36.0031 33.1862 36.1096 33.2573C36.216 33.3285 36.2989 33.4295 36.3479 33.5478C36.3969 33.6661 36.4097 33.7962 36.3848 33.9217C36.3598 34.0473 36.2981 34.1626 36.2076 34.2531C36.1171 34.3436 36.0018 34.4053 35.8763 34.4302C35.7507 34.4552 35.6206 34.4424 35.5023 34.3934C35.3841 34.3444 35.283 34.2615 35.2119 34.155C35.1408 34.0486 35.1028 33.9235 35.1028 33.7955C35.1031 33.624 35.1714 33.4597 35.2927 33.3385C35.4141 33.2174 35.5785 33.1483 35.75 33.1483ZM34.4502 35.7478C34.5782 35.7478 34.7034 35.7858 34.8098 35.8569C34.9162 35.928 34.9992 36.0291 35.0481 36.1474C35.0971 36.2656 35.1099 36.3958 35.085 36.5213C35.06 36.6468 34.9984 36.7622 34.9079 36.8527C34.8173 36.9432 34.702 37.0048 34.5765 37.0298C34.4509 37.0548 34.3208 37.042 34.2025 36.993C34.0843 36.944 33.9832 36.861 33.9121 36.7546C33.841 36.6482 33.803 36.523 33.803 36.395C33.8036 36.2238 33.872 36.0597 33.9933 35.9388C34.1147 35.8179 34.2789 35.75 34.4502 35.75V35.7478ZM32.5 5.84957H27.2998V5.20237H30.5498C30.6348 5.20237 30.7189 5.18563 30.7975 5.15311C30.876 5.12058 30.9473 5.07291 31.0074 5.01281C31.0675 4.95272 31.1152 4.88137 31.1477 4.80285C31.1802 4.72433 31.197 4.64017 31.197 4.55518V1.29978H32.5V5.84957ZM35.9452 4.54978L37.7002 3.37944V4.54978H35.9452Z" fill="#98CF7C"/>
</svg>
