<svg width="1024" height="278" viewBox="0 0 1024 278" fill="none" xmlns="http://www.w3.org/2000/svg">
<path d="M218.507 127.73H244.878V157.784H241.111L237.343 176.567L233.576 180.324L229.809 195.351L226.041 202.864L218.507 206.621L195.903 184.081V142.757H218.507V127.73Z" fill="#FFCE19"/>
<path d="M180.833 105.189H210.972V135.243H180.833V105.189Z" fill="#FFCE19"/>
<path fill-rule="evenodd" clip-rule="evenodd" d="M139.392 278C62.408 278 0 215.768 0 139C0 62.2324 62.408 0 139.392 0C216.376 0 278.784 62.2324 278.784 139C278.784 215.768 216.376 278 139.392 278ZM139.392 254.483C75.4327 254.483 23.5834 202.78 23.5834 139C23.5834 75.2205 75.4327 23.517 139.392 23.517C203.352 23.517 255.201 75.2205 255.201 139C255.201 202.78 203.352 254.483 139.392 254.483Z" fill="#FFCE19"/>
<path d="M90.4163 75.1333H120.555V105.187H90.4163V75.1333Z" fill="#FFCE19"/>
<path d="M64.0451 63.8639L94.1839 41.3234L105.486 37.5666V67.6206H82.8818V82.6476H48.9756L64.0451 63.8639Z" fill="#FFCE19"/>
<path d="M105.486 240.432L101.719 236.676L90.4166 232.919L86.6492 229.162L75.3471 225.406V217.892H67.8124L60.2777 202.865L45.2083 187.838H67.8124V172.811H90.4166V180.325H105.486V202.865H150.694V195.352H180.833V187.838H188.368L214.739 214.135L203.437 217.892V225.406L192.135 229.162L188.368 232.919L165.764 240.432L135.625 244.189L105.486 240.432Z" fill="#FFCE19"/>
<path d="M188.368 45.0815L199.67 52.595L222.274 75.1354L241.111 105.189H252.413L256.18 120.216H218.507V97.6759H173.298V75.1354H188.368V45.0815Z" fill="#FFCE19"/>
<path d="M45.2083 90.163H82.8818V112.703H105.486V135.244H75.3471V165.298H60.2777V180.325H45.2083L37.6736 172.811V157.784H15.0694V142.757H37.6736V105.19L41.4409 101.433L45.2083 90.163Z" fill="#FFCE19"/>
<path d="M97.9513 165.297V172.81H105.486V157.783H150.694V187.837H173.298V180.324H188.368V142.756H173.298V105.189H165.764V97.6751H128.09V112.702H113.021V142.756H82.8819V165.297H97.9513Z" fill="#FFCE19"/>
<path d="M113.021 165.296H143.16V195.35H113.021V165.296Z" fill="#FFCE19"/>
<path d="M113.021 33.8111L169.531 37.5679H173.298L180.833 41.3246V67.6218H165.764V90.1623H128.09V67.6218H113.021V33.8111Z" fill="#FFCE19"/>
<path d="M216.704 215.979C196.929 235.729 169.591 247.947 139.392 247.947C96.6614 247.947 59.6602 223.484 41.7037 187.837H50.0868C67.4011 219.255 100.903 240.548 139.392 240.548C167.538 240.548 193.016 229.162 211.448 210.757L216.704 215.979Z" fill="#FFCE19"/>
<path d="M222.006 210.296C238.603 191.188 248.646 166.264 248.646 139.001C248.646 135.195 248.45 131.435 248.068 127.73H240.605C241.015 131.431 241.226 135.191 241.226 139.001C241.226 164.225 232.003 187.302 216.736 205.059L222.006 210.296Z" fill="#FFCE19"/>
<path d="M46.3439 180.324H38.2717C33.0293 167.581 30.1389 153.628 30.1389 139.001C30.1389 121.442 34.3047 104.853 41.7047 90.1631H50.0879C42.1015 104.654 37.5588 121.299 37.5588 139.001C37.5588 153.716 40.6976 167.7 46.3439 180.324Z" fill="#FFCE19"/>
<path d="M247.028 120.216C241.016 85.7269 218.741 56.8031 188.368 41.5888V49.9484C214.605 64.327 233.8 89.8996 239.487 120.216H247.028Z" fill="#FFCE19"/>
<path d="M180.833 38.1663C168.054 32.9382 154.061 30.0556 139.392 30.0556C130.3 30.0556 121.466 31.1632 113.021 33.2506V40.8927C121.432 38.6502 130.272 37.4546 139.392 37.4546C154.15 37.4546 168.174 40.5849 180.833 46.2158V38.1663Z" fill="#FFCE19"/>
<path d="M105.486 43.2193C84.5672 50.5828 66.7827 64.5678 54.6646 82.6497H45.8702C59.3004 60.5336 80.3972 43.5636 105.486 35.4039V43.2193Z" fill="#FFCE19"/>
<path d="M846.78 120.216L833.02 106.495V63.3146H860.539V93.0971L863.696 96.2449H877.941V120.216H846.78ZM876.484 36.599V55.082H822.903V36.599H833.02V29.4964L847.67 15.049H860.539V36.599H876.484Z" fill="#FFCE19"/>
<path d="M854.314 120.216L840.555 106.495V63.3146H868.074V93.0971L871.231 96.2449H885.476V120.216H854.314ZM884.019 36.599V55.082H830.437V36.599H840.555V29.4964L855.205 15.049H868.074V36.599H884.019Z" fill="#FFCE19"/>
<path d="M346.597 33.8108V15.027H414.409V33.8108H397.456V101.432H414.409V120.216H346.597V101.432H363.55V33.8108H346.597Z" fill="#FFCE19"/>
<path d="M542.754 37.7987H534.965L558.334 120.447H565.104L542.754 37.7987Z" fill="#FFCE19"/>
<path d="M542.754 37.7987L564.029 120.447H591.225L571.224 37.7987H542.754Z" fill="#FFCE19"/>
<path d="M598.924 37.7987L589.606 76.621L599.319 120.447H600.533L622.194 37.5674L621.614 37.7987H598.924Z" fill="#FFCE19"/>
<path d="M599.01 37.5676H591.475L585.952 59.5975L590.374 80.4532L591.475 82.6486L599.01 37.5676Z" fill="#FFCE19"/>
<path d="M512.361 48.1811L523.663 60.1081V120.216L512.361 120.214V48.1811Z" fill="#FFCE19"/>
<path d="M429.479 37.5676H444.548V120.216H429.479V37.5676Z" fill="#FFCE19"/>
<path d="M437.734 37.5676V120.216H465.254V47.0108L458.941 37.5676H437.734Z" fill="#FFCE19"/>
<path d="M476.786 37.5676L473.591 40.231V55.5662H482.818L485.974 58.714V120.216H513.494V49.4322L501.596 37.5676H476.786Z" fill="#FFCE19"/>
<path d="M534.965 183.56L546.267 195.355V255.463L534.965 255.461V183.56Z" fill="#FFCE19"/>
<path d="M452.083 142.757H467.152V255.459H452.083V142.757Z" fill="#FFCE19"/>
<path d="M460.339 255.459V142.757H487.858V255.459H460.339Z" fill="#FFCE19"/>
<path d="M508.578 255.459V193.957L505.422 190.809H496.195V175.474L499.39 172.811H524.2L536.098 184.675V255.459H508.578Z" fill="#FFCE19"/>
<path d="M1005.16 196.103H1024V211.13H1008.93L1005.16 196.103Z" fill="#FFCE19"/>
<path d="M941.839 172.812V256.212H969.359V183.006L962.543 172.812H941.839Z" fill="#FFCE19"/>
<path d="M990.094 172.812V177.321L986.326 177.32V197.373H998.74V172.812H990.094Z" fill="#FFCE19"/>
<path d="M949.374 172.812V256.212H976.893V183.006L970.078 172.812H949.374Z" fill="#FFCE19"/>
<path d="M989.416 172.812L985.23 176.226V197.373H1006.27V172.812H989.416Z" fill="#FFCE19"/>
<path d="M1019.4 172.879L1022.13 174.829L1024 176.278V196.103H1001.4V172.842L1019.4 172.879Z" fill="#FFCE19"/>
<path d="M724.308 192.645L733.456 183.423L736.21 186.139L727.061 195.361L724.308 192.645Z" fill="#FFCE19"/>
<path d="M738.388 244.189L727.086 232.921L724.333 235.637L735.635 246.905L738.388 244.189Z" fill="#FFCE19"/>
<path d="M735.751 97.6757H749.704V112.703H731.876L731.118 111.931L735.751 97.6757Z" fill="#FFCE19"/>
<path d="M707.147 97.6757H693.194V112.703H711.022L713.385 110.297L712.03 108.946L707.147 97.6757Z" fill="#FFCE19"/>
<path d="M706.762 97.6757L705.052 98.7946L713.917 112.267L716.564 110.535L708.102 97.6757H706.762Z" fill="#FFCE19"/>
<path d="M667.97 120.216V37.5676H654.21L640.451 51.2885V109.159L651.539 120.216H667.97Z" fill="#FFCE19"/>
<path d="M706.821 120.216H683.022V105.189H710.074L716.534 110.531L706.821 120.216Z" fill="#FFCE19"/>
<path d="M687.881 58.9561V73.9685H683.022V88.9808H715.4V51.2885L701.641 37.5676H683.022V55.8084H684.724L687.881 58.9561Z" fill="#FFCE19"/>
<path d="M660.435 120.216V37.5676H646.676L632.916 51.2885V109.159L644.005 120.216H660.435Z" fill="#FFCE19"/>
<path d="M699.286 120.216H675.487V105.189H702.539L708.999 110.531L699.286 120.216Z" fill="#FFCE19"/>
<path d="M680.346 58.9561V73.9685H675.487V88.9808H707.866V51.2885L694.106 37.5676H675.487V55.8084H677.19L680.346 58.9561Z" fill="#FFCE19"/>
<path d="M918.119 232.919H904.166V247.946H921.994L924.357 245.54L923.002 244.189L918.119 232.919Z" fill="#FFCE19"/>
<path d="M917.734 232.919L916.024 234.038L924.889 247.51L927.536 245.778L919.074 232.919H917.734Z" fill="#FFCE19"/>
<path d="M878.942 255.459V172.811H865.182L851.423 186.532V244.402L862.511 255.459H878.942Z" fill="#FFCE19"/>
<path d="M917.793 255.459H893.994V240.432H921.046L927.506 245.774L917.793 255.459Z" fill="#FFCE19"/>
<path d="M898.853 194.199V209.212H893.994V224.224H926.372V186.532L912.613 172.811H893.994V191.052H895.696L898.853 194.199Z" fill="#FFCE19"/>
<path d="M871.407 255.459V172.811H857.648L843.888 186.532V244.402L854.977 255.459H871.407Z" fill="#FFCE19"/>
<path d="M910.258 255.459H886.459V240.432H913.511L919.971 245.774L910.258 255.459Z" fill="#FFCE19"/>
<path d="M891.318 194.199V209.212H886.459V224.224H918.838V186.532L905.078 172.811H886.459V191.052H888.162L891.318 194.199Z" fill="#FFCE19"/>
<path d="M631.8 232.919H617.846V247.946H635.675L638.038 245.54L636.683 244.189L631.8 232.919Z" fill="#FFCE19"/>
<path d="M631.415 232.919L629.705 234.038L638.57 247.51L641.217 245.778L632.755 232.919H631.415Z" fill="#FFCE19"/>
<path d="M592.623 255.459V172.811H578.863L565.104 186.532V244.402L576.192 255.459H592.623Z" fill="#FFCE19"/>
<path d="M631.474 255.459H607.675V240.432H634.727L641.186 245.774L631.474 255.459Z" fill="#FFCE19"/>
<path d="M612.534 194.199V209.212H607.675V224.224H640.053V186.532L626.294 172.811H607.675V191.052H609.377L612.534 194.199Z" fill="#FFCE19"/>
<path d="M585.088 255.459V172.811H571.328L557.569 186.532V244.402L568.658 255.459H585.088Z" fill="#FFCE19"/>
<path d="M623.939 255.459H600.14V240.432H627.192L633.652 245.774L623.939 255.459Z" fill="#FFCE19"/>
<path d="M604.999 194.199V209.212H600.14V224.224H632.519V186.532L618.759 172.811H600.14V191.052H601.843L604.999 194.199Z" fill="#FFCE19"/>
<path d="M791.145 60.1081H805.098L809.982 48.8378L791.145 45.0811V60.1081Z" fill="#FFCE19"/>
<path d="M809.496 46.7797L811.293 47.6712L805.082 60.1279L803.284 59.2364L809.496 46.7797Z" fill="#FFCE19"/>
<path d="M781.101 37.5676V54.4495H796.601L803.794 47.6565L793.352 37.5676H781.101Z" fill="#FFCE19"/>
<path d="M779.107 120.216H795.538L806.626 109.159V84.0574L792.867 70.3365H764.457L761.381 67.1887V37.5676H747.622L733.862 51.2885V75.0984L747.622 88.8194H775.95L779.107 91.9672V120.216Z" fill="#FFCE19"/>
<path d="M770.77 120.216V105.543H737.496L730.867 111.661L739.447 120.216H770.77Z" fill="#FFCE19"/>
<path d="M786.642 120.216H803.072L814.161 109.159V84.0574L800.401 70.3365H771.992L768.916 67.1887V37.5676H755.156L741.397 51.2885V75.0984L755.156 88.8194H783.485L786.642 91.9672V120.216Z" fill="#FFCE19"/>
<path d="M766.032 120.216V105.543H745.031L738.402 111.661L746.982 120.216H766.032Z" fill="#FFCE19"/>
<path d="M777.172 54.4495H804.136L811.328 47.6565L800.887 37.5676H777.172V54.4495Z" fill="#FFCE19"/>
<path d="M774.177 255.459V142.757H746.658V255.459H774.177Z" fill="#FFCE19"/>
<path d="M825.125 255.459H794.959L788.885 242.918V189.127L795.221 174.557H820.96L801.858 213.379L825.125 255.459Z" fill="#FFCE19"/>
<path d="M781.712 255.459V142.757H754.192V255.459H781.712Z" fill="#FFCE19"/>
<path d="M832.659 255.459H802.493L790.049 229.764V203.775L802.756 174.557H828.495L809.393 213.379L832.659 255.459Z" fill="#FFCE19"/>
<path d="M655.506 186.532L669.266 172.811H683.026V255.459H666.595L655.506 244.402V186.532Z" fill="#FFCE19"/>
<path d="M719.691 255.459L730.294 244.886L722.711 238.532H698.542V255.459H719.691Z" fill="#FFCE19"/>
<path d="M691.362 172.811V172.825H698.542V192.666H700.104L700.138 192.7H719.305L727.947 185.402L716.049 172.811H691.362Z" fill="#FFCE19"/>
<path d="M676.801 172.811L663.041 186.532V244.402L674.13 255.459H690.56V172.811H676.801Z" fill="#FFCE19"/>
<path d="M727.226 255.459H698.897V238.532H730.246L737.829 244.886L727.226 255.459Z" fill="#FFCE19"/>
<path d="M698.897 192.666H707.639L707.672 192.7H726.839L735.482 185.402L723.584 172.811H698.897V192.666Z" fill="#FFCE19"/>
<path d="M404.623 180.794H423.46L438.529 165.767H404.623V180.794Z" fill="#FFCE19"/>
<path d="M404.623 225.875H424.494L439.893 240.902H404.623V225.875Z" fill="#FFCE19"/>
<path d="M382.755 255.459H369.481L354.132 240.154V166.853L370.687 150.27H382.755V255.459Z" fill="#FFCE19"/>
<path d="M425.388 255.459H391.805V234.891H433.749L440.001 240.887L425.388 255.459Z" fill="#FFCE19"/>
<path d="M431.569 171.778H391.805V150.27H423.298L438.529 165.899L431.569 171.778Z" fill="#FFCE19"/>
<path d="M384.27 150.27H384.286L384.29 172.062H384.27V150.27Z" fill="#FFCE19"/>
<path d="M395.592 171.025H424.925L430.994 165.899L415.763 150.27H395.588L395.592 171.025Z" fill="#FFCE19"/>
<path d="M384.27 234.871H384.301L384.305 255.459H384.27V234.871Z" fill="#FFCE19"/>
<path d="M375.22 255.459V150.27H363.153L346.597 166.853V240.154L361.946 255.459H375.22Z" fill="#FFCE19"/>
<path d="M417.853 255.459L432.466 240.887L426.215 234.892H395.603L395.607 255.459H417.853Z" fill="#FFCE19"/>
</svg>
